{
    "KPackageStructure": "KWin/Effect",
    "KPlugin": {
        "Authors": [
            {
                "Email": "l.lunak@kde.org, kde@privat.broulik.de, mgraesslin@kde.org",
                "Name": "Lubos Lunak, Kai Uwe Broulik, Martin Gräßlin",
                "Name[ar]": "لوبوس لوناك، كاي أووي بروتيك، مارتن جراجلين",
                "Name[be]": "Lubos Lunak, Kai Uwe Broulik, Martin Gräßlin",
                "Name[bg]": "Lubos Lunak, Kai Uwe Broulik, Martin Gräßlin",
                "Name[ca@valencia]": "Lubos Lunak, Kai Uwe Broulik, Martin Gräßlin",
                "Name[ca]": "Lubos Lunak, Kai Uwe Broulik, Martin Gräßlin",
                "Name[cs]": "Lubos Lunak, Kai Uwe Broulik, Martin Gräßlin",
                "Name[en_GB]": "Lubos Lunak, Kai Uwe Broulik, Martin Gräßlin",
                "Name[es]": "Lubos Lunak, Kai Uwe Broulik, Martin Gräßlin",
                "Name[et]": "Lubos Lunak, Kai Uwe Broulik, Martin Gräßlin",
                "Name[eu]": "Lubos Lunak, Kai Uwe Broulik, Martin Gräßlin",
                "Name[fr]": "Lubos Lunak, Kai Uwe Broulik, Martin Gräßlin",
                "Name[it]": "Lubos Lunak, Kai Uwe Broulik, Martin Gräßlin",
                "Name[ka]": "Lubos Lunak, Kai Uwe Broulik, Martin Gräßlin",
                "Name[nl]": "Lubos Lunak, Kai Uwe Broulik, Martin Gräßlin",
                "Name[pl]": "Lubos Lunak, Kai Uwe Broulik, Martin Gräßlin",
                "Name[pt]": "Lubos Lunak, Kai Uwe Broulik, Martin Gräßlin",
                "Name[ru]": "Lubos Lunak, Kai Uwe Broulik, Martin Gräßlin",
                "Name[sl]": "Lubos Lunak, Kai Uwe Broulik, Martin Gräßlin",
                "Name[ta]": "லூபோசு லுனாக்கு, காய் ஊவே புரோலிக்கு, மார்ட்டின் கிராஸ்லின்",
                "Name[tr]": "Lubos Lunak, Kai Uwe Broulik, Martin Gräßlin",
                "Name[uk]": "Lubos Lunak, Kai Uwe Broulik, Martin Gräßlin",
                "Name[vi]": "Lubos Lunak, Kai Uwe Broulik, Martin Gräßlin",
                "Name[x-test]": "xxLubos Lunak, Kai Uwe Broulik, Martin Gräßlinxx",
                "Name[zh_CN]": "Lubos Lunak, Kai Uwe Broulik, Martin Gräßlin",
                "Name[zh_TW]": "Lubos Lunak, Kai Uwe Broulik, Martin Gräßlin"
            }
        ],
        "Category": "Appearance",
        "Description": "Smoothly fade to the desktop when logging in",
        "Description[ar]": "اظهار سطح المكتب بنعومة عند الولوج",
        "Description[be]": "Плаўнае зацямненне працоўнага стала падчас уваходу",
        "Description[bg]": "Плавен преход към работния плот при влизане",
        "Description[ca@valencia]": "Transició suau a l'escriptori en connectar-se",
        "Description[ca]": "Transició suau a l'escriptori en connectar-se",
        "Description[en_GB]": "Smoothly fade to the desktop when logging in",
        "Description[es]": "Desvanecimiento suave para mostrar el escritorio al iniciar sesión",
        "Description[et]": "Töölaua sujuv ilmumine sisselogimisel",
        "Description[eu]": "Emeki desagertu mahaigainerantz saio-hastean",
        "Description[fr]": "Effectuer un dégradé progressif vers le bureau lors de la connexion",
        "Description[it]": "Dissolvenza graduale del desktop all'accesso",
        "Description[ka]": "შესვლისას სამუშაო მაგიდაზე რბილი გადასვლა",
        "Description[nl]": "Laat het opstartscherm vervagen naar het opkomende bureaublad tijdens het aanmelden",
        "Description[pl]": "Płynne rozjaśnianie do pulpitu podczas logowania",
        "Description[pt]": "Desvanecer suavemente para o ecrã após a autenticação",
        "Description[sl]": "Ob prijavi gladko prelije na namizje",
        "Description[ta]": "அமர்வில் நுழையும்போது பணிமேடையின் ஒளிபுகாமையை படிப்படியாக உயர்த்தி அதைக் காட்டும்",
        "Description[tr]": "Giriş yaparken masaüstüne pürüzsüzce geçiş yap",
        "Description[uk]": "Плавна поява стільниці під час входу",
        "Description[vi]": "Làm mờ dần sang bàn làm việc một cách êm dịu khi đăng nhập",
        "Description[x-test]": "xxSmoothly fade to the desktop when logging inxx",
        "Description[zh_CN]": "登录时平滑地过渡到桌面",
        "Description[zh_TW]": "登入時平順地淡入桌面",
        "EnabledByDefault": true,
        "Icon": "preferences-system-windows-effect-login",
        "Id": "kwin4_effect_login",
        "License": "GPL",
        "Name": "Login",
        "Name[ar]": "ولوج",
        "Name[be]": "Увайсці",
        "Name[bg]": "Вход",
        "Name[ca@valencia]": "Inici de sessió",
        "Name[ca]": "Inici de sessió",
        "Name[cs]": "Přihlášení",
        "Name[en_GB]": "Login",
        "Name[es]": "Inicio de sesión",
        "Name[et]": "Sisselogimine",
        "Name[eu]": "Saio-hastea",
        "Name[fr]": "Se connecter",
        "Name[ia]": "Accesso de identification",
        "Name[it]": "Accedi",
        "Name[ka]": "შესვლა",
        "Name[nl]": "Aanmelden",
        "Name[pl]": "Logowanie",
        "Name[pt]": "Arranque",
        "Name[sl]": "Prijava",
        "Name[ta]": "நுழைவு",
        "Name[tr]": "Giriş",
        "Name[uk]": "Вхід",
        "Name[vi]": "Đăng nhập",
        "Name[x-test]": "xxLoginxx",
        "Name[zh_CN]": "登录渐变动画",
        "Name[zh_TW]": "登入",
        "Version": "0.2.0"
    },
    "X-KDE-Ordering": "40",
    "X-KDE-PluginKeyword": "kwin4_effect_login",
    "X-KWin-Config-TranslationDomain": "kwin_effects",
    "X-Plasma-API": "javascript",
    "X-Plasma-MainScript": "code/main.js"
}
