{
    "KPackageStructure": "KWin/Script",
    "KPlugin": {
        "Authors": [
            {
                "Email": "mgraesslin@kde.org",
                "Name": "Martin Gräßlin",
                "Name[ar]": "مارتن جراجلين",
                "Name[be]": "Martin Gräßlin",
                "Name[bg]": "Martin Gräßlin",
                "Name[ca@valencia]": "Martin Gräßlin",
                "Name[ca]": "Martin Gräßlin",
                "Name[en_GB]": "Martin Gräßlin",
                "Name[es]": "Martin Gräßlin",
                "Name[et]": "Martin Gräßlin",
                "Name[eu]": "Martin Gräßlin",
                "Name[fr]": "Martin Gräßlin",
                "Name[it]": "Martin Gräßlin",
                "Name[ka]": "მარტინ გრესსლინი",
                "Name[nl]": "Martin Gräßlin",
                "Name[pl]": "Martin Gräßlin",
                "Name[pt]": "Martin Gräßlin",
                "Name[ru]": "Martin Gräßlin",
                "Name[sl]": "Martin Gräßlin",
                "Name[ta]": "மார்ட்டின் கிராஸ்லின்",
                "Name[tr]": "Martin Gräßlin",
                "Name[uk]": "Martin Gräßlin",
                "Name[vi]": "Martin Gräßlin",
                "Name[x-test]": "xxMartin Gräßlinxx",
                "Name[zh_CN]": "Martin Gräßlin",
                "Name[zh_TW]": "Martin Gräßlin"
            }
        ],
        "Description": "Spans fullscreen video player over all attached screens to create a Video Wall",
        "Description[ar]": "يمتد مشغل الفيديو بملء الشاشة على جميع الشاشات المرفقة لإنشاء حائط فيديو",
        "Description[be]": "Размяркоўвае поўнаэкранны відэаплэер на ўсе падлучаныя экраны, каб стварыць відэасцяну",
        "Description[bg]": "Разпределяне на видео предаването на всички прикачени екрани, за да се създаде видео стена",
        "Description[ca@valencia]": "Expandix el reproductor de vídeo a pantalla completa per a totes les pantalles adjuntades per a crear un mur de vídeo",
        "Description[ca]": "Expandeix el reproductor de vídeo a pantalla completa per a totes les pantalles adjuntades per a crear un mur de vídeo",
        "Description[cs]": "Roztáhne přehrávání videa přes všechny plochy pro vytvoření video zdi",
        "Description[en_GB]": "Spans fullscreen video player over all attached screens to create a Video Wall",
        "Description[es]": "Amplía el reproductor de video en pantalla completa a todas las pantallas conectadas para crear un muro de vídeo",
        "Description[et]": "Täisekraan-videomängija laiendamine kõigile ühendatud ekraanile videoseina loomiseks",
        "Description[eu]": "Bideo-horma bat sortzeko, leiho-osoko bideo jotzailea atxikitako pantaila guzietara hedatzen du",
        "Description[fr]": "Affiche le lecteur vidéo en plein écran sur tous les écrans connectés pour créer un mur d’images",
        "Description[ia]": "Extende jocator de video de schermo plen super omne schermos attachate pro crea un Muro de Video",
        "Description[it]": "Distribuisce il lettore video a schermo intero su tutti gli schermi per creare una parete video",
        "Description[nl]": "Verdeelt de videospeler in modus volledig scherm over alle aangesloten schermen om een Videomuur te creëren",
        "Description[pl]": "Rozciąga pełnoekranowy odtwarzacz filmów na wszystkie podłączone ekrany, tworząc ścianę wideo",
        "Description[pt]": "Expande o leitor de vídeo de ecrã completo para todos os ecrãs ligados, de forma a formar um mural de vídeo",
        "Description[sl]": "Raztegne celozaslonski video predvajalnik na vseh pripete zaslone, da ustvarite video steno",
        "Description[ta]": "முழுத்திரை நிகழ்படத்தை பல திரைகளில் பரப்பி ஒரே திரையை போல் காட்டும்",
        "Description[tr]": "Tam ekran video oynatıcılarını tüm bağlı ekranlara genişleterek bir tür Video Duvarı oluşturur",
        "Description[uk]": "Розподіл зображення відеопрогравача у повноекранному режимі на всі екрани з метою створення відеостіни",
        "Description[vi]": "Trải trình phát phim toàn màn hình ra tất cả các màn hình đang được gắn vào để tạo nên một màn hình ghép",
        "Description[x-test]": "xxSpans fullscreen video player over all attached screens to create a Video Wallxx",
        "Description[zh_CN]": "视频播放器在全屏时将显示在全部已连接的屏幕上，组成视频墙",
        "Description[zh_TW]": "將全螢幕的影片播放器擴展到所有的螢幕，建立一個影片牆",
        "Icon": "preferences-system-windows-script-test",
        "Id": "videowall",
        "License": "GPL",
        "Name": "Video Wall",
        "Name[ar]": "حائط الفيديو",
        "Name[be]": "Відэасцяна",
        "Name[bg]": "Видео стена",
        "Name[ca@valencia]": "Mur de vídeo",
        "Name[ca]": "Mur de vídeo",
        "Name[cs]": "Video stěna",
        "Name[en_GB]": "Video Wall",
        "Name[es]": "Video wall",
        "Name[et]": "Videosein",
        "Name[eu]": "Bideo-horma",
        "Name[fr]": "Mur de vidéos",
        "Name[ia]": "Muro de Video",
        "Name[it]": "Parete video",
        "Name[ka]": "ვიდეო კედელი",
        "Name[nl]": "Videomuur",
        "Name[pl]": "Ściana wideo",
        "Name[pt]": "Painel de Vídeo",
        "Name[sl]": "Video stena",
        "Name[ta]": "நிகழ்பட சுவர்",
        "Name[tr]": "Video Duvarı",
        "Name[uk]": "Відеостіна",
        "Name[vi]": "Màn hình ghép",
        "Name[x-test]": "xxVideo Wallxx",
        "Name[zh_CN]": "视频墙",
        "Name[zh_TW]": "影片牆",
        "Version": "1.0"
    },
    "X-KDE-ConfigModule": "kwin/effects/configs/kcm_kwin4_genericscripted",
    "X-KDE-PluginKeyword": "videowall",
    "X-Plasma-API": "javascript",
    "X-Plasma-MainScript": "code/main.js"
}
