{
    "KPlugin": {
        "Category": "Appearance",
        "Description": "Sliding animation for Plasma popups",
        "Description[ar]": "تحريكات التمرير لمنبثقات بلازما",
        "Description[az]": "Sürüşən pəncərələrin animasiyalı peyda olması",
        "Description[be]": "Анімацыя высоўвання для выплыўных акон Plasma",
        "Description[bg]": "Плъзгаща се анимация за изскачащи прозорци на Plasma",
        "Description[ca@valencia]": "Animació de desplaçament per als missatges emergents de Plasma",
        "Description[ca]": "Animació de desplaçament per als missatges emergents del Plasma",
        "Description[cs]": "Animace klouzání vyskakovacích oken plasmy",
        "Description[de]": "Effekt zum Hereingleiten von Plasma-Aufklappfenstern",
        "Description[en_GB]": "Sliding animation for Plasma popups",
        "Description[es]": "Animación de deslizamiento para las ventanas emergentes de Plasma",
        "Description[et]": "Plasma hüpikdialoogide liuguv animatsioon",
        "Description[eu]": "Animazio irristakorra Plasmaren gainerakorrentzat",
        "Description[fi]": "Plasma-ponnahdusikkunoiden liukuanimaatio",
        "Description[fr]": "Animation de glissement pour les menus contextuels de Plasma",
        "Description[hu]": "Csúszó animáció a felugró Plasma ablakokhoz",
        "Description[ia]": "Animation glissante pro popups de Plasma",
        "Description[id]": "Animasi geser untuk sembulan Plasma",
        "Description[it]": "Animazione di scivolamento delle finestre a comparsa di Plasma",
        "Description[ja]": "Plasma のポップアップにスライドアニメーション効果を付与します",
        "Description[ka]": "Plasma-ის მხტუნარების სრიალის ანიმაცია",
        "Description[ko]": "Plasma 팝업의 미끄러짐 애니메이션",
        "Description[nl]": "Schuivende animaties voor Plasma-popups",
        "Description[nn]": "Glide-animasjon for Plasma-sprettoppvindauge",
        "Description[pl]": "Animuje wysuwanie paneli Plazmy",
        "Description[pt]": "Animação deslizante das janelas do Plasma",
        "Description[pt_BR]": "Animação deslizante para as mensagens instantâneas do Plasma",
        "Description[ro]": "Animație lunecoasă pentru indiciile Plasma",
        "Description[ru]": "Анимация всплывающих окон для Plasma",
        "Description[sk]": "Animácia vysúvania pre vyskakovacie okná plasmy",
        "Description[sl]": "Animacija drsenja za pojavne gradnike Plasma",
        "Description[sv]": "Glidande animering av Plasmarutor",
        "Description[tr]": "Plasma açılır pencereleri için kayma canlandırması",
        "Description[uk]": "Анімація з ковзанням для контекстних вікон Плазми",
        "Description[vi]": "Hiệu ứng động dạng trượt cho các ô bật lên Plasma",
        "Description[x-test]": "xxSliding animation for Plasma popupsxx",
        "Description[zh_CN]": "气泡显示/隐藏时呈现滑动动效",
        "Description[zh_TW]": "提供滑動動畫予 Plasma 彈出視窗",
        "EnabledByDefault": true,
        "Id": "slidingpopups",
        "License": "GPL",
        "Name": "Sliding Popups",
        "Name[ar]": "منبثقات التمرير",
        "Name[bg]": "Плъзгащи се изскачащи прозорци",
        "Name[ca@valencia]": "Missatges emergents desplaçant-se",
        "Name[ca]": "Missatges emergents desplaçant-se",
        "Name[es]": "Deslizar ventanas emergentes",
        "Name[eu]": "Gainerakor irristakorrak",
        "Name[fr]": "Annotations glissantes",
        "Name[it]": "Finestre a comparsa che scivolano",
        "Name[ka]": "მცურავი მხტუნარები",
        "Name[nl]": "Schuivende pop-ups",
        "Name[pt]": "Janelas Deslizantes",
        "Name[sl]": "Drsne pretvorbe",
        "Name[tr]": "Kayan Açılır Pencereler",
        "Name[uk]": "Ковзні контекстні вікна",
        "Name[x-test]": "xxSliding Popupsxx",
        "Name[zh_TW]": "滑動的彈出視窗"
    },
    "org.kde.kwin.effect": {
        "video": "https://files.kde.org/plasma/kwin/effect-videos/sliding_popups.mp4"
    }
}
